"name","location","city","country","phone","specialties","website"
"Genetics Center","","Dubai","UAE","9718004363","",""
"Thalassemia Centre ","Oud Maitha St.
AL WASL Hospital
Box: 9115, Dubai
United Arab Emirates ","Dubai","UAE","971042193794","","www.thalassemia-dubai.com"
"Dubai Gynaecology and Fertility Centre","# 64, Al Razi Building

First Floor, Block D

Dubai Healthcare City ","Dubai","UAE","9714 4393832","",""
"The Dubai Diabetes Center","Al Hudaiba Awards Buildings, Near the Union House, Southern end of 2nd of December Street,Block C, First Floor","Dubai","UAE","971043546633","",""
"Dubai Cord Blood & Research Center","Latifa Hospital
Oud Metha Road
P.O.Box: 9115, Dubai
United Arab Emirates","Dubai","UAE","971042194010","",""
"Dubai Blood Donation Center","Latifa Hospital,
Oud Metha Road,
Dubai Health Authority,
Dubai,
United Arab Emirates","Dubai","UAE","97142193221","",""
