"name","location","city","country","phone","specialties","website"
"PREMIUM CARE POLYCLINIC","Abu -Hamour Area, 5420, Halool Street-, DOHA, QATAR","Doha","Qatar","97444339000","Dental , Dermatology , Geriatric Medicine , Obstetrics and Gynaecology , Opthalmology , Orthopaedics/Trauma , Paediatrics , Physiotherapy .","www.pcpqatar.com"
"DR. ANJUMAN CLINIC","Villa No 79, 19652, Hamad Street No 430, NEW RAYYAN ZONE NO 53, Doha, QATAR","Doha","Qatar","97444324076","General Internal Medicine ",""
"DR. RAMESH BABU'S CLINIC",", 90278, Al-Shafi Street, 53, DOHA, QATAR","Doha","Qatar","97444801929","General Practitioner",""
"DR. MAHER ABBAS CLINIC","Dr. Maher Abbas Clinic, Ground, 778, albustan villa Alwab, ALWAAB, DOHA, QATAR","Doha","Qatar","97444162819","Paediatrics",""
"TAMIMA MEDICAL COMPLEX","Villa #55, 1st floor, 2713, Al Jamaa Street- Street, BETWEEN TV R/A & DAFNA R/A, DOHA, QATAR","Doha","Qatar","97444875535","Ear Nose and Throat , General Practitioner , Obstetrics and Gynaecology",""
"BADR AL SAMAA MEDICAL CENTER W.L.L","Doctors Polyclinic, Mesaimeer Road, OPPOSITE ABU HAMOUR PETROL STATION, DOHA, QATAR","Doha","Qatar","97444162525","Dental , General Internal Medicine , General Practitioner , Obstetrics and Gynaecology , Opthalmology , Orthopaedics/Trauma , Paediatrics , Physiotherapy .",""
"DR. RADY RADWAN CLINIC","Dr. Rady Radwan Clinic, Ground, 9001, 1/ Al Defaf St., Al Sadd Dr. Rady Clinic Building, DOHA, QATAR","Doha","Qatar","97444443301","Paediatrics",""
"DR. JEGAN CHACKO CLINIC","Dr. Jegan Chacko Clinic, Mezzanine, 550, Building no:24293. Flat 22, 13/A WADI AL MUSHERIEB, DOHA, QATAR","Doha","Qatar","97444447879","Cardiology , Endocrinology and Diabetes Mellitus , Gastroenterology , General Internal Medicine , Haematology , Infectious Diseases , Neurology , Renal Medicine/Nephrology , Respiratory Medicine , Rheumatology",""
"DR.MAMMENS CLINIC","Al Dana Furnished Flats, 2ND, 20836, Musherib Street, DOHA, QATAR","Doha","Qatar","97444353204","General Practitioner",""
"DR. REENU KURUVILLA PHILIP CLINIC","Bldg # 5 Room # 4, MEZZANINE, 31734, Al Ghadeer Street, Musheireb Area, Doha, QATAR","Doha","Qatar","97444433650","Dermatology",""
"DR. PUSHPALATHA CLINIC","Dr. Pushpalatha Clinic, First, 50031, 1 B-Airport Road-near Crazy signal/Near Kabab King, Najma Bldg. No 42-Above Modern Family Pharmacy, DOHA, QATAR","Doha","Qatar","97444327155","Opthalmology",""
"DR. AMINA S CLINIC","Building No. 2, Ground, 22275, Quartuba Street, AL WAKRAH, DOHA, QATAR","Doha","Qatar","97444632474","Ear Nose and Throat , General Practitioner .",""
"AL ZAEEM GROUP OF COMPANIES","Al Atteya New Complex, GF & 1ST, 41111, Al Kassarat No. 23, Al Rayyan, Doha, QATAR","Doha","Qatar","97444500001","Dental , General Internal Medicine , General Practitioner ","www.alzaeem-group.com"
"AL SHOROOK MEDICAL CENTER","Al Shorook Medical Center, Flat No-30, 45319, Al Khartiyat, Al Shamal, Doha, QATAR","Doha","Qatar","97444888231","Dental , Dermatology , Obstetrics and Gynaecology , Paediatrics .",""
"MICRO HEALTH LABORATORY","Micro Health Laboratory, -, 31034, Saad bin abi waqqas St., Al Mammoura Villa No: 22, DOHA, QATAR","Doha","Qatar","97444506383","Allergy , Haematology , Immunology , Infectious Diseases , Med.Microbiology and Virology","www.microhealthcare.com"
"DR. KHALED AL BAYYARI CLINIC","Dr. Khaled Al Bayyari Clinic, 20160, ( 2 ) Al - Amir Street - no- 17 - Midmac flyover, Alsudan Almorjan, DOHA, QATAR","Doha","Qatar","97444322978","Dermatology",""
"DR. ATEF RIZK CLINIC","Al Mutanabai Stationery Building, 17404, Flat No.4 - Al Sadd street - Building No. 48, AL SADD AREA, Doha, QATAR","Doha","Qatar","97444449356","Gastroenterology , General Internal Medicine , General Practitioner",""
"AL SAFA POLYCLINIC","30253, Al Kinana Street, QATAR DAYCARE CENTRE- FLAT #313, DOHA, QATAR","Doha","Qatar","97444428701","Dental , General Practitioner , General Surgery","www.alsafahospital.com"
"AL MANSOOR POLYCLINIC","Building No. 105, 35, 19344, AL GHARIYA, Kaka Mustafa, DOHA, QATAR","Doha","Qatar","97444883377","Dental , Dermatology , Ear Nose and Throat , General Internal Medicine , General Practitioner , Obstetrics and Gynaecology , Orthopaedics/Trauma , Paediatrics .",""
"DR. KHALID AL SHEIKH ALI CLINIC","Dr. Khalid Al Sheikh Ali Clinic, Ground, 1961, AL-KINANA STREET, AL SADD, DOHA, QATAR","Doha","Qatar","97444328095","General Practitioner",""
"HEKMA MEDICAL COMPLEX","96454, Hekma Complex- Ummthoom, DOHA, QATAR","Doha","Qatar","97444141977","Dental , Ear Nose and Throat , Obstetrics and Gynaecology , Opthalmology , Paediatrics .","www.hekmahealth.com"
"DR. FATINA OMRAN CLINIC","Dr.Fatina Omran Clinic, Ground, 17503, University Sreet Number 33, Al Makhiya Zone Building 111, DOHA, QATAR","Doha","Qatar","97444878230","General Internal Medicine , General Practitioner , Geriatric Medicine , Obstetrics and Gynaecology , Paediatrics , Respiratory Medicine",""
"FOCUS MEDICAL CENTRE","24784, Najma Street, DOHA, QATAR","Doha","Qatar","97444654788","Dental , General Practitioner ",""
"AVENUES DENTAL CENTER","Avenues Dental Center, 678, Msaimeer Road, Doha, QATAR","Doha","Qatar","97444818112","","www.avenuesdental.com"
"DIAMOND DENTAL CENTER"," Diamond Dental Center, 205180, 524, Al Kharaitiyat, Doha, QATAR","Doha","Qatar","97444130100","",""
"AL RAFA POLYCLINIC-INDUSTRIAL AREA","Al buzwair, 1, 24450, Ain khalid street, INDUSTRIAL AREA, DOHA, QATAR","Doha","Qatar","97444604448","Allergy , Dental , Dermatology , Ear Nose and Throat , General Internal Medicine , General Practitioner ","www.dmhealthcare.com.qa"
"DR. LEILA HAMID MEDICAL CENTRE","Dr. Leila Hamid Medical Centre, 76, 2505, Villa No. 24770- Al Salam Street, North Maezer, Al Rayyan, Doha, QATAR","Doha","Qatar","97455847034","Dental , Obstetrics and Gynaecology , Psychiatry-Adult , Psychiatry-Child/Adolescent , Urology ",""
"ATLAS POLYCLINIC","Amphi Theatre. Industrial Area, 1, 23656, Cricket Stadium Complex, Industrial Area, Doha, QATAR","Doha","Qatar","97444554001","Dental , Dermatology , Endocrinology and Diabetes Mellitus , General Internal Medicine , Obstetrics and Gynaecology , Orthopaedics/Trauma","www.dhcgroup.qa"
"FUTURE MEDICAL CENTER (QATAR)","23632, Al Waab, Opp. Villagio Mall, Doha, QATAR","Doha","Qatar","97444510051","Dental , Dermatology , General Internal Medicine , Obstetrics and Gynaecology , Paediatrics ","www.fmcdoha.com"
"ROYAL SPANISH CENTER","Villa 10, 21650, Al Bustan Street, Al Waab Area Near American School, Doha, QATAR","Doha","Qatar","97444112992","Opthalmology .",""
"ELAJ MEDICAL CENTRE","22788, Commercial Centre- Salwa Rd, DOHA, QATAR","Doha","Qatar","97444430055","Dermatology , General Practitioner , Haematology ",""
"DR. MOHAMAD AMINE ZBEIB POLYCLINIC ","Dr. Mohamad Amine Zbeib Polyclinic, 47657, JIBLAH BIN MALEK STREET, 56- AL-MA`AMOURA, DOHA, QATAR","Doha","Qatar","97444685444","Allergy , Cardiology , Dental , Endocrinology and Diabetes Mellitus , Gastroenterology , General Internal Medicine , General Practitioner , Infectious Diseases , Med.Microbiology and Virology , Obstetrics and Gynaecology , Renal Medicine/Nephrology , Respiratory Medicine , Rheumatology ",""
"DOHA SPECIALIZED DENTAL CENTER","villa 128, First, 8569, Al muntazah St - 330, NEW SLATE - 40, DOHA, QATAR","Doha","Qatar","97444568585","Dental ","www.dohadentalcenter.com"
"FAMILY MEDICAL CLINICS","FAMILY MEDICAL CLINICS, Ground, 17897, HALOUL STR, ALMAAMOURA, DOHA, QATAR","Doha","Qatar","97444514557","Allergy , Dental , Ear Nose and Throat , General Internal Medicine , General Practitioner , Haematology , Immunology , Obstetrics and Gynaecology , Opthalmology , Paediatrics , Physiotherapy","www.familymedicalclinics-qa.com"
"DR. AYA IBRAHIM MOHAMED ABULELA","Dr. Ayay Aboulola Clinic, VILLA, 4036, 56 Al Maamoura/830 Al Qaseim St., Doha, QATAR","Doha","Qatar","97444683399","General Practitioner ",""
"TEBA SPECIALIZED DENTAL CENTER","Villa 5, 1st to 2nd, 8569, 990 - umsamer, 56 - ABU HAMOUR, DOHA, QATAR","Doha","Qatar","97444163344","Dental",""
"MEDICAL LABORATORIES","Medical Laboratories, 12750, Villa 42, Street # 970, Umm Lekhba Duhail, Doha, QATAR","Doha","Qatar","97444356492","Allergy , Haematology , Immunology , Infectious Diseases , Med.Microbiology and Virology .",""
"AL BORG MEDICAL LABORATORY CO.","VILLA 4, 5207, North Road, North Khalifa City, Near Land Mark Mall, Doha, QATAR","Doha","Qatar","97444146710","Haematology ","www.alborglaboratories.com"
"AL ESRAA POLYCLINIC","Al Esraa Polyclinic, 23632, Al Markhiya Street, Markhiya, Doha, QATAR","Doha","Qatar","97440377991","Cardiology , Dental , Dermatology , General Internal Medicine , Obstetrics and Gynaecology , Opthalmology , Paediatrics ","www.DHCgroup.qa"
"DR. OMAR ABDULRAHMAN KHARRAT CLINIC","30658, Duhail, Khafil Street Near Revere Compound, DOHA, QATAR","Doha","Qatar","97444832623","Dental ",""
"LEBANESE QATARI SPECIALITY COMPLEX-MKS"," 22638, Old Morour Ra-Madinat Khalifa South, DOHA, QATAR","Doha","Qatar","97444869933","Dental",""
"AL ADAAM MEDICAL CENTER","Al Adaam Medical Center, 209066, Al Shafallahya, Duhail, Doha, QATAR","Doha","Qatar","97444420448","Obstetrics and Gynaecology",""
"DR. THOMAS ENT CLINIC","Dr. Thomas Ent Clinic, 1, 14581, No : 13- Sulaiman Bin Wahab Street, AL SADD, DOHA, QATAR","Doha","Qatar","97444448899","Audiology , Ear Nose and Throat",""
"DR. SUZAN MOHD MOHD ABOUSHOUK","1418, Al Taif St- North Madinat Khalifa, DOHA, QATAR","Doha","Qatar","97444887396","Obstetrics and Gynaecology ",""
"GULF LABORATORY & X-RAY (MAIN)","Gulf Laboratory & X-Ray, 7613, 64- Al Kinana Street, AL NASR, DOHA, QATAR","Doha","Qatar","97444420900","Haematology , Immunology , Infectious Diseases , Med.Microbiology and Virology , Medical Oncology , Obstetrics and Gynaecology","www.gulflab-xray.com"
"DOHA CLINIC HOSPITAL","DOHA CLINIC HOSPITAL, 4, 9958, AL NASR ST., OLD MERQAB, DOHA, QATAR","Doha","Qatar","97444384333","Cardiology , Dental , Dermatology , Ear Nose and Throat , Endocrinology and Diabetes Mellitus , Gastroenterology , General Internal Medicine , General Practitioner , General Surgery , Geriatric Medicine , Haematology , Immunology , Infectious Diseases , Med.Microbiology and Virology , Musculoskeletal Medicine , Neurology , Neurosurgery , Obstetrics and Gynaecology , Opthalmology , Oral and Maxillo Facial surgery , Orthopaedics/Trauma , Paediatric Surgery , Paediatrics , Physiotherapy , Psychiatry-Adult , Rehabilitation Medicine , Rheumatology , Sports Medicine , Urology , Vascular surgery","www.doha-hospital.com"
"ELITE INTERNATIONAL MEDICAL CENTER","Elite International Medical Center, 0, 20890, Al Khafji Street, Al Duhail, Doha, QATAR","Doha","Qatar","97444922099","Dental , General Internal Medicine , Obstetrics and Gynaecology ",""
"NASEEM AL RABEEH MEDICAL CENTRE","NASEEM AL RABEEH MEDICAL CENTRE, 22368, C-Ring Road, Opp Gulf Times, DOHA, QATAR","Doha","Qatar","97444652121","Dental , Dermatology , Gastroenterology , General Internal Medicine , General Practitioner , Obstetrics and Gynaecology , Opthalmology , Orthopaedics/Trauma , Paediatrics","www.naseemalrabeehmedicalcentre.com"
"AL NOOR MEDICAL LABORATORY"," Al Noor Medical Laboratory, 55867, Al Muntaza, Doha, QATAR","Doha","Qatar","97444553737","",""
"AL RAFA POLYCLINIC - C RING ROAD"," 24450, C Ring Road, Al Muntazah, Doha, QATAR","Doha","Qatar","97440219777","Dental , Dermatology , General Internal Medicine , General Practitioner , Obstetrics and Gynaecology , Physiotherapy","www.aster.com.qa"
"AL BIDAA DENTAL CENTRE","14776, Al Muntazah (Rowdat Al Khail St.), Flat #267, Doha, QATAR","Doha","Qatar","97444762000","Dental",""
"ART DENTAL POLYCLINIC","Art Dental Polyclinic, 246, 14335, Qatar, Al Muntazah, Doha, QATAR","Doha","Qatar","97444815761","Dental",""
"DR. RAFAH ALI MAKKI CLINIC","Al Muntazah, Doha, QATAR","Doha","Qatar","97444554035","Obstetrics and Gynaecology",""
"DR. HASSAN MOHAMED HASSAN SPECIALIST DENT CTR","7620, Zeid Khail Street, DOHA, QATAR","Doha","Qatar","97444350225","Dental ",""
"BIN MUFTAH MEDICAL CENTRE","Bin Muftah Medical Centre, 201357, Flat No: 59626- Plot No.67010028, Hazm Al Markhiya, Doha, QATAR","Doha","Qatar","97444062666","Dental , Dermatology , General Practitioner , General Surgery , Obstetrics and Gynaecology , Opthalmology , Orthopaedics/Trauma , Paediatrics , Urology ","www.binmuftahmedical.com"
"AL NOKHBA PHYSIOTHERAPY","Elite Physiotherapy Center;: Villa No: 2, 1563, Rawdat Alkhail, Nuija, Doha, QATAR","Doha","Qatar","97444667068","Physiotherapy",""
"DENTAL CARE SPECIALIZED CENTER","Dental Care Specialized Center, VILLA # 8, 35194, E Ring Road, Al Thumama, Doha, QATAR","Doha","Qatar","97444500450","Dental",""
"AL SHEFA POLYCLINIC","Al Shefa Polyclinic, 6190, Al Muntaza Street, AL HILAL- VILLA # 20, DOHA, QATAR","Doha","Qatar","97444660330","Acupuncture , Cardiology , Dental , Ear Nose and Throat , General Internal Medicine , General Practitioner , General Surgery , Obstetrics and Gynaecology , Opthalmology , Orthopaedics/Trauma , Paediatrics","www.alshefapolyclinic.com"
"AMERICAN HOSPITAL DOHA","American Hospital, -, 22314, C - Ring Road, Al - Muntazah, Doha, QATAR","Doha","Qatar","97444421999","Accident and Emergency , Acupuncture , Allergy , Audiology , Cardiology , Dental , Dermatology , Ear Nose and Throat , Endocrinology and Diabetes Mellitus , Gastroenterology , General Internal Medicine , General Practitioner , General Surgery , Geriatric Medicine , Haematology , Immunology , Infectious Diseases , Med.Microbiology and Virology , Neurosurgery , Obstetrics and Gynaecology , Opthalmology , Oral and Maxillo Facial surgery , Orthopaedics/Trauma , Paediatric Cardiology , Paediatric Surgery , Paediatrics , Physiotherapy , Psychiatry-Adult , Psychiatry-Child/Adolescent , Rehabilitation Medicine , Renal Medicine/Nephrology , Respiratory Medicine , Rheumatology , Trauma surgery , Urology , Vascular surgery","www.ahqatar.com"
"DR. SAMEER'S INTERNAL MEDICINE CLINIC","Building No:5, MEZZANINE, 9615, Al Ghadeer Street No:850, Musheireb Area (No:13), Doha, QATAR","Doha","Qatar","9744442822","General Internal Medicine ",""
"DR.TOYESON'S DENTAL CLINIC","Building Name-5, MEZANINE F, 37182, Al Ghadeer Street - 850, Doha, QATAR","Doha","Qatar","97444369457","Dental ",""
"DR.SALEENA CLINIC"," Dr.Sameer Kalandan'S Clinic Bldg., 63640, Al Ghadheer Street, Doha, QATAR","Doha","Qatar","97444432516","Obstetrics and Gynaecology ",""
"THE APOLLO CLINIC","The Apollo Clinic, -, 23656, Near Hafsa Signal- Rawdat Al Khail Street, Al Mansoura Apollo Clinic Building, DOHA, QATAR","Doha","Qatar","97444418441","Cardiology , Dental , Dermatology , Ear Nose and Throat , Endocrinology and Diabetes Mellitus , General Internal Medicine , General Practitioner , General Surgery , Med.Microbiology and Virology , Obstetrics and Gynaecology , Opthalmology , Oral and Maxillo Facial surgery , Orthopaedics/Trauma , Paediatrics , Physiotherapy , Respiratory Medicine ","www.apolloqatar.com"
"MAJESTIC DENTAL CENTER","Majestic Dental Center, 91967, 14 / League of Arab States Street, MARKHIYA, DOHA, QATAR","Doha","Qatar","97444182192","Dental","www.majesticdental.net"
"AMBAT KRISHNAN KUTTY","DR. KUTTY'S CLINIC, Ground, 2052, NEAR MAMOURA COMPLEX- ABOVE AL HAKEEM PHARMACY, DOHA, DOHA, QATAR","Doha","Qatar","97444693694","General Practitioner",""
"AL ESRAA MEDICAL CENTER"," 23632, Garafa, Near Landmark Mall, DOHA, QATAR","Doha","Qatar","97444989811","Dental , Dermatology , Ear Nose and Throat , Endocrinology and Diabetes Mellitus , General Internal Medicine , Obstetrics and Gynaecology , Paediatrics","www.dhcgroup.qa"
"GULF LABORATORY & X-RAY (MUSHEIRIB)","Opp Of Hotel Sofitel, 7613, Musheirib, DOHA, QATAR","Doha","Qatar","97444416729","Haematology ","www.qatardiagnostic.com"
"MEDINOVA DIAGNOSTIC CENTRE - DOHA","Medinova Diagnostic Centre - Doha, 24450, Wadi Musherib St. Near Jaidar Flyover, DOHA, QATAR","Doha","Qatar","97444426247","Haematology","www.aster.com.qa"
"DR. SALIM MOHAMMED CLINIC","Above Qatar Pharmacy, 37166, Musherib Street, Near National Showroom, DOHA, QATAR","Doha","Qatar","97444370599","General Practitioner",""
"MEDCARE CLINIC","Medcare Clinic, -, 24450, Ad Dawhah, AL HILAL, DOHA, QATAR","Doha","Qatar","97444550755","Dental , Dermatology , Ear Nose and Throat , Endocrinology and Diabetes Mellitus , General Internal Medicine , General Practitioner , Obstetrics and Gynaecology , Paediatrics , Physiotherapy","www.dmhealthcare.com"
"DR. SUSAN'S DENTAL CLINIC"," 18648, Abdul Aziz Bin Ahmed Street- Building #7, DOHA, QATAR","Doha","Qatar","97444313775","Dental",""
"DR. JACOB'S DENTAL CLINIC","Souq Ahmed Bin Ali, Flat No-38 Buildg-14, 2, 14581, Al Ahmed Street - No 850, Doha, QATAR","Doha","Qatar","97444412545","Dental",""
"DR. FARID HASSAN DENTAL CLINIC","7620, Zeid Al Khail St Branch Of Al Minghab, BEHIND SWISS PASSITURES AL NASR RD, DOHA, QATAR","Doha","Qatar","97444350225","Dental",""
"KIMS QATAR MEDICAL CENTRE","82125, Abdul Rehman Bin Jassim Al Thani St, Doha, QATAR","Doha","Qatar","97444631864","Dental , Dermatology , Ear Nose and Throat , General Internal Medicine , General Practitioner , General Surgery , Paediatrics","www.kqmc.com.qa"
"ARAK DENTAL CENTRE","Arak Dental Centre, 93536, Muither Al Shamali, DOHA, QATAR","Doha","Qatar","97444810410","Dental",""
"DR. KHALID AL DWEIK DENTAL CLINIC","60802, Al Khor City, Doha, QATAR","Doha","Qatar","97444722356","Dental",""
"ASTER MEDICAL CENTRE- AL RAFA POLY CLINIC","Aster Building, 1ST & 2ND, 24450, Al Tahi Street, Doha, QATAR","Doha","Qatar","97444129910","Dental , Dermatology , Ear Nose and Throat , General Internal Medicine , General Practitioner , Obstetrics and Gynaecology , Opthalmology , Paediatrics , Physiotherapy .","www.aster.com.qa"
"AL ARABI X-RAY & MEDL LAB CTR-MADIN","Al Naser, AL NASER, 7613, 64 Al Kinana Street, Doha, QATAR","Doha","Qatar","97444420900","","www.gulflab-xray.com"
"AL BORG LABORATORY","Al Borg Laboratory, 1, 5207, Al Waab Street, Al Waab Area ( Area 55 ) Villa 137, Doha, QATAR","Doha","Qatar","97444472224","Haematology , Immunology , Infectious Diseases , Med.Microbiology and Virology .","www.alborglaboratories.com"
"QUEEN MEDICAL CENTRE","Queen Medical Centre, 1st floor, 1418, Villaggio, VILLAGGIO, DOHA, QATAR","Doha","Qatar","97444190888","Accident and Emergency , Dental , Dermatology , General Surgery , Infectious Diseases , Obstetrics and Gynaecology , Opthalmology , Oral and Maxillo Facial surgery , Orthopaedics/Trauma , Paediatrics , Physiotherapy , Rehabilitation Medicine , Renal Medicine/Nephrology ","www.queenmedical.com"
"THE QUEEN DENTAL CENTER","City Center Mall, Ground, 1418, P1, EL DAFNA, DOHA, QATAR","Doha","Qatar","97444932999","Dental","www.queendent.com.qa"
"AL AZIZIYA MEDICAL CENTRE","Al Azizya Medical Centre, 91074, Salwa Road , Beside Qatar Islamic Bank And Family , TEEBA COMPLEX-, DOHA, QATAR","Doha","Qatar","97444692425","Dental , General Internal Medicine , General Practitioner , Obstetrics and Gynaecology , Oral and Maxillo Facial surgery , Paediatrics","www.alfatehcompany.com"
"INTERNATIONAL SPECIALIZED DENTAL CTR"," International Specialized Dental Ctr, 3082, Al Waab St, DOHA, QATAR","Doha","Qatar","97444507897","Dental","www.isdc-doha.com"
"MADINA DENTAL CENTER - ASPIRE BR.","24547, Sports City Street-, DOHA, QATAR","Doha","Qatar","97444606211","Dental","www.madinadental.com"
"BOSTON MEDICAL CARE","202446, Al Waab Road, Doha, QATAR","Doha","Qatar","97444438327","Dental , Dermatology , Obstetrics and Gynaecology , Opthalmology .","www.bostonmedcare.com"
"NAJAT DENTAL CENTER","Najat Dental Center Blg No:373, 0, 6628, Al Waab No.364, Doha, QATAR","Doha","Qatar","97444111170","Dental",""
"AL HAYAT MEDICAL CENTER","Al-Hayat Medical Center, 12962, Khaliji 11 St., AL WAAB, DOHA, QATAR","Doha","Qatar","97444297200","Dental , Dermatology , General Internal Medicine , General Practitioner , Obstetrics and Gynaecology , Paediatrics , Physiotherapy , Urology .","www.alhayatmedicalcenter.com.qa"
"AL TAHRIR MEDICAL CENTER","Al Tahrir Medical Center, 45157, Al Frosea Street, Infront Of Zoo, Doha, QATAR","Doha","Qatar","97444111130","Dental , General Practitioner ",""
"DR ABDUL AZIZ AL-JUFAIRI ENT CLINIC","8, Mesaimeer, Abu Hamour, DOHA, QATAR","Doha","Qatar","97444161688","Ear Nose and Throat ","www.aljufairi-daycare.com"
"RAYYAN DENTAL CENTRE","1, 32563, Al Shafi, New Rayyan, Doha, QATAR","Doha","Qatar","97444802205","Dental",""
"AL ABEER MEDICAL CENTER","Al Abeer Medical Center, 32380, Mesaimeer Street, No 13 Zone 56 Street 469, Doha, QATAR","Doha","Qatar","97444236035","Dental , Dermatology , Ear Nose and Throat , Obstetrics and Gynaecology , Opthalmology , Paediatrics , Physiotherapy","www.alabeergroup.com"
"MADINA DENTAL CENTER - ABU HAMOUR BRANCH","Villa, 24547, 565, Mesaimeer 56, Doha, QATAR","Doha","Qatar","97444145769","Dental","www.madinadental.com"
"DR. AJUS CLINIC","Building No 66, 1 & 2, 550, Al Mashaf Street, Al Soudan Area, Doha, QATAR","Doha","Qatar","97444365051","Psychiatry-Adult , Psychiatry-Child/Adolescent .","www.drajusclinic.com"
"DR. MARWAN KALLA DENTAL CENTRE","Dr. Marwan Kalla Dental Centre, 4833, 31- Tammem, AL SADD, DOHA, QATAR","Doha","Qatar","97444429185","Dental",""
"AL KHRITTIYAT MEDICAL CENTER DENTAL","Al Attiya Shopping, 1, 91074, Alkhrittiyat, Alkhrittiyat, Doha, QATAR","Doha","Qatar","97444935315","Dental , Oral and Maxillo Facial surgery .","www.alfatehcompany.com"
"THE QUEEN DENTAL CENTER - KHALIFA TOWN","The Queen Dental Center, GROUND FLO, 8508, 252 Februray Street, Doha, QATAR","Doha","Qatar","97444860023","Dental",""
"QATAR CHIROPRACTIC & PHYSIO CLINIC","10702, Al-Kendy Medical Complex, GROUND FLOOR, DOHA, QATAR","Doha","Qatar","97444323985","Physiotherapy",""
"DR. AYAD AL SHAKARCHI MEDICAL CTR","Dr. Ayad Al Shakarchi Medical Ctr, Ground, 5490, Al-Ghadeeriyat Street, Umm Lakhba 31- Behind Landmark Mall. Villa No.40, DOHA, QATAR","Doha","Qatar","97444127772","Dental , General Practitioner , Obstetrics and Gynaecology , Paediatrics","www.dasmc.com"
"QATAR MEDICAL CENTRE","Qatar Medical Centre, Ground, 6904, Salwa Road-Between Ramada Signal and Midmac, AL NASER, Doha, QATAR","Doha","Qatar","97444440606","Dental , Dermatology , Ear Nose and Throat , Gastroenterology , General Internal Medicine , General Practitioner , General Surgery , Geriatric Medicine , Haematology , Obstetrics and Gynaecology , Opthalmology , Oral and Maxillo Facial surgery , Orthopaedics/Trauma , Paediatrics , Physiotherapy , Rehabilitation Medicine , Renal Medicine/Nephrology .","www.qatarmedicalcentre.com"
"DR. MOHAMED ELWADIA DENTAL CLINIC","Dr. Mohamed Elwadia, 4374, 48 / ali bin abi talin st, ALSALATA ALJADEEDA, DOHA, QATAR","Doha","Qatar","97444661947","Dental",""
"GERMAN DENTAL CENTER","German Dental Clinic, first, 39267, Office No. 8- Al-Nasser St.- opposite Lexus Palace, Al Nasser (Al Mirqab) Bldg Opposite Lexus Palace, DOHA, QATAR","Doha","Qatar","97444411711","Dental","www.germandentalqatar.com"
"AL TAI MEDICAL CENTER W.L.L","Building No.74, 0, 21045, Al Kinana Street, Street No.820, Al Nasser Area, Doha, QATAR","Doha","Qatar","97444916666","Dental , General Internal Medicine , General Practitioner , Obstetrics and Gynaecology , Opthalmology , Orthopaedics/Trauma , Paediatrics , Physiotherapy ",""
"MADINA DENTAL CENTRE, ALSADD","Madina Dental Centre, Alsadd, 24547, Qatar, Flat 88- Jawaan St, DOHA, QATAR","Doha","Qatar","97444367527","Dental","www.madinadental.com"
"MADINA DENTAL CENTRE, LAGTA","Madina Dental Centre, Lagta, 24547, Qatar, Lagta St, DOHA, QATAR","Doha","Qatar","97444877530","Dental","www.madinadental.com"
"TADAWI MEDICAL CENTER","3585, Bin Basheer Street, Freej Kulaib, Doha, QATAR","Doha","Qatar","97444880887","Dental , Dermatology , General Practitioner , Obstetrics and Gynaecology , Physiotherapy",""
"DR. SHIYAS SALIM DENTAL CLINIC","Yusuf Ahmad Jamal, MEZZANINE, 10787, FLAT NO:4- Opp. Home Centre-, ABOVE CURE HOME PHARMACY- MUSHERIB, Doha, QATAR","Doha","Qatar","97444317353","Dental",""
"AL EMADI HOSPITAL","Al Emadi Hospital, G & 1, 5804, Al Arab Street, AL HILAL WEST- NEAR MALL ROUNDABOUT, DOHA, QATAR","Doha","Qatar","97444666009","Accident and Emergency , Allergy , Audiology , Cardiology , Dental , Dermatology , Ear Nose and Throat , Gastroenterology , General Internal Medicine , General Practitioner , General Surgery , Obstetrics and Gynaecology , Opthalmology , Oral and Maxillo Facial surgery , Orthopaedics/Trauma , Paediatrics , Physiotherapy , Respiratory Medicine , Rheumatology , Trauma surgery , Urology","www.alemadihospital.net"
"AL WEHDA DENTAL CENTER","AL WEHDA DENTAL CENTER, FLOOR 1, 14368, AL TAAWON ST., AL HILAL AREA, DOHA, QATAR","Doha","Qatar","97444654221","Accident and Emergency , Dental , General Practitioner .","www.al-wehda.com"
"AL AHMADANI MEDICAL CENTER","ALI BIN JABOUR COMPLEX, Ground, 13366, FLAT NO 10/ AL NAJMA, C-RING ROAD/GULF CINEMA TRAFFIC LIGHT/NAJMA, DOHA, QATAR","Doha","Qatar","97466842899","Dental ",""
"INTERNATIONAL CENTER FOR ORTHOPEDICS AND NEUR","Icon Medical W.L.L. Building C, 2ND, 3325, Old Airport Rd, Business Park-Crowne Plaza, Al Najma Area, Doha, QATAR","Doha","Qatar","97440191200","Neurosurgery , Orthopaedics/Trauma",""
"MAGRABI EYE AND EAR CENTRE","Magrabi Eye Ear Centre, G to 2nd, 23293, D- RING ROAD-NEAR DOHA AIRPORT, DOHA - QATAR, DOHA, QATAR","Doha","Qatar","97455785347","Audiology , Dental , Ear Nose and Throat , Opthalmology .","www.magrabihospitals.com"
"BRITISH INTERNATIONAL DENTAL CENTRE","Salam Towers-, 201045, Corniche Street, Doha, QATAR","Doha","Qatar","97444117755","Dental ","www.qatardental.net"
"LEBANESE QATARI DENTAL SPECIALITY COMPLEX","22638, Old Airport, DOHA, QATAR","Doha","Qatar","97444666028","Dental ",""
"DR. HASSAN AL ABDULLA DERMATOLOGY","Dr. Hassan Al Abdulla Dermatology, 01-Mar, 23881, D-Ring Road, OLD AIRPORT, DOHA, QATAR","Doha","Qatar","97444323900","Allergy , Dental , Dermatology , Physiotherapy","www.drhassanmedical.com"
"CLEOPATRA DENTAL CENTRE","Cleopatra Dental Centre, Ground, 80753, #25/ 490, WAKRAH, DOHA, QATAR","Doha","Qatar","97455564439","",""
"DR. SHAIKHA ALKUBAISI CLINIC","Dr. Shaikha Alkubaisi Clinic, 1st floor, 8925, Building 56 Abuhamoor- Street 691 Almaghder, ABUHAMOOR AREA, DOHA, QATAR","Doha","Qatar","97444368707","Dental",""
"SHARQ DENTAL CENTER"," 39179, New Asslata, DOHA, QATAR","Doha","Qatar","97444567770","Dental","www.sharqmedicalcentre.com"
"AL MASA DENTAL COMPLEX","AL MASA DENTAL COMPLEX, First, 24661, 55, AL AZIZYA-DOHA, DOHA, QATAR","Doha","Qatar","97444513289","Dental",""
"QDENT DENTAL CENTER","Flat No:-597, 364, 4706, Al Waad, Opposite To Khalifa Stadium, Doha, QATAR","Doha","Qatar","97444111105","Dental",""
"PREMIUM NASEEM AL RABEEH MEDICAL CENTRE DOHA","Premium Naseem Al Rabeeh Medical Centre, 0, 22891, Mamoura, Doha, QATAR","Doha","Qatar","97444930286","Dental , Dermatology , Obstetrics and Gynaecology ",""
"BEAUTY DENTAL CLINIC","Beauty Dental Clinic, 37680, Halul street no 56, AL MAAMURA, DOHA, QATAR","Doha","Qatar","97455203964","Dental , Oral and Maxillo Facial surgery ",""
"DIJLA DENTAL CENTER","2188, Abu Hamour St., Doha, QATAR","Doha","Qatar","97444554114","Dental ",""
"DR. SALMA DENTAL CLINIC"," Dr. Salma Dental Clinic, Ground, 2376, Villa #2 -#32 Al Ghadriya St. co. Omair bin Maabad, MADINAT KHALIFA NORTH, DOHA, QATAR","Doha","Qatar","97444863544","Dental",""
"AL-DANA COSMETIC & IMPLANT DENTISTRY","Al-Dana Cosmetic & Implant Dentistry, 1, 13638, 103, Al Sadd Choice Center, DOHA, QATAR","Doha","Qatar","97444340154","Dental","www.danadental.com"
"AL REEM DENTAL CENTER","Flat No: 76, 976, Alnuman St, Alazizya, Doha, QATAR","Doha","Qatar","97444116122","Dental",""
"DR.HASSAN AL-ABDULLA SPECIALIZED DENTAL CENTE","Dr.Hassan Al-Abdulla Specialized Dental, 23881, 250 D Ring Road Old Airport Road, MAQTAR QADEEM, DOHA, QATAR","Doha","Qatar","97444323900","Dental , Dermatology",""
"DR. GHASSAN KAHLOUT DENTAL CLINIC","Dr. Ghassan Kahlout Dental Clinic, Ground, 20182, New Salata St.#920(Near Family Dental Center), New Salata Area#40 Villa No. 68, DOHA, QATAR","Doha","Qatar","97444417224","",""
"AL AHLI HOSPITAL","AL AHLI HOSPITAL, -, 6401, Bin Omran Ahmed Bin Ali Street 20, DOHA, QATAR","Doha","Qatar","97444898000","Accident and Emergency , Allergy , Audiology , Cardiology , Cardio-Thoracic Surgery , Dental , Dermatology , Ear Nose and Throat , Gastroenterology , General Internal Medicine , General Practitioner , General Surgery , Infectious Diseases , Med.Microbiology and Virology , Medical Oncology , Musculoskeletal Medicine , Obstetrics and Gynaecology , Opthalmology , Oral and Maxillo Facial surgery , Orthopaedics/Trauma , Paediatrics , Physiotherapy , Psychiatry-Adult , Psychiatry-Child/Adolescent , Rehabilitation Medicine , Respiratory Medicine , Rheumatology , Sports Medicine , Trauma surgery , Urology , Vascular surgery","www.ahlihospital.com"
"GULF DENTAL CENTER","GULF DENTAL CENTER, Ground, 22258, Al Muntazah Street- Nuaija, Ad Dawhah, Doha, QATAR","Doha","Qatar","97444670701","Dental",""
"CEDARS DENTAL CENTER","villa 2, 47684, Ahmad Bin Ali, WADI AL SAIL -WEST, DOHA, QATAR","Doha","Qatar","97444864088","Dental","www.cedars-dental.com"
"AL MAHA DENTAL CLINIC"," AL MAHA, First, 2188, AL RAWABI STREET, AL MUNTAZAH, DOHA, QATAR","Doha","Qatar","97444312222","Dental , Oral and Maxillo Facial surgery","www.almahadentalgroup.com"
"AL AQSA DENTAL CENTER","Al Aqsa Dental Center, 1, 1120, 14/Zeid Al Kheel Street, AL NASSER, DOHA, QATAR","Doha","Qatar","97444446010","Dental",""
"ROYAL MEDICAL CENTER","22638, Al Muntazah Street, West Hilal Area, DOHA, DOHA, QATAR","Doha","Qatar","97444502050","Dental , Dermatology , Ear Nose and Throat , General Internal Medicine , Obstetrics and Gynaecology , Opthalmology , Oral and Maxillo Facial surgery , Urology , Vascular surgery","www.rmcdoha.com"
"CEDARS DENTAL CENTER-HILAL BRANCH"," Villa Cedars Dental Center, 47684, Al Wafaa (St 950), Doha, QATAR","Doha","Qatar","97444438385","Dental",""
"DR.SARAH SPECIALIST DENTAL CENTRE","Dr.Sarah Specialist Dental Centre, 10, 201045, Cornich Street, Near Sheraton Hotel Salam Towers, DOHA, QATAR","Doha","Qatar","97444117744","Dental","www.qatardental.net"
