"name","location","city","country","phone","specialties","website"
"DOHA SPECIALIZED DENTAL CENTER","Doha Specialized Dental Center, Villa 57, 8569, Al Jabal, Al Wakrah, Wakra, QATAR","Wakra","Qatar","97444692065","Dental , General Practitioner , Oral and Maxillo Facial surgery ","www.dohadentalcenter.com"
"ZIRCON DENTAL CENTER","Villa No. 36, 1914, Al-Wakra Main Street, Opposite Gate No 4 Al-Wakra Hospital, Wakra, QATAR","Wakra","Qatar","97444433161","Dental ",""
"GULF DENTAL CENTER","Villa 155, 0, 22258, Al Nukair, Wakra, Wakra, QATAR","Wakra","Qatar","97444771011","Dental ",""
